digraph "drawNS::APIGnuPlot3D"
{
 // LATEX_PDF_SIZE
  edge [fontname="Helvetica",fontsize="10",labelfontname="Helvetica",labelfontsize="10"];
  node [fontname="Helvetica",fontsize="10",shape=record];
  Node1 [label="drawNS::APIGnuPlot3D",height=0.2,width=0.4,color="black", fillcolor="grey75", style="filled", fontcolor="black",tooltip="Implementation drawing 3D class using gnuplot Class implements proxy between gnuplot and C++ code."];
  Node2 -> Node1 [dir="back",color="midnightblue",fontsize="10",style="solid",fontname="Helvetica"];
  Node2 [label="drawNS::Draw3DAPI",height=0.2,width=0.4,color="black", fillcolor="white", style="filled",URL="$classdraw_n_s_1_1_draw3_d_a_p_i.html",tooltip="Abstract interface for drawing class Abstract class used as interface for 3D drawing class implementa..."];
}
