digraph "basicDrone::tilt"
{
 // LATEX_PDF_SIZE
  edge [fontname="Helvetica",fontsize="10",labelfontname="Helvetica",labelfontsize="10"];
  node [fontname="Helvetica",fontsize="10",shape=record];
  rankdir="RL";
  Node1 [label="basicDrone::tilt",height=0.2,width=0.4,color="black", fillcolor="grey75", style="filled", fontcolor="black",tooltip="Metoda wirtualna realizujaca pochylenie drona (domyslnie rotacje wokol osi X)."];
  Node1 -> Node2 [dir="back",color="midnightblue",fontsize="10",style="solid",fontname="Helvetica"];
  Node2 [label="basicDrone::animate",height=0.2,width=0.4,color="black", fillcolor="white", style="filled",URL="$classbasic_drone.html#a1494182d1f2e07173b5acf8723724b6a",tooltip="Metoda wirtualna realizujaca animacje (wizualizacje) przemieszczen i rotacji drona z zadana predkosci..."];
}
