digraph "hexagonalDrone::animate"
{
 // LATEX_PDF_SIZE
  edge [fontname="Helvetica",fontsize="10",labelfontname="Helvetica",labelfontsize="10"];
  node [fontname="Helvetica",fontsize="10",shape=record];
  rankdir="LR";
  Node1 [label="hexagonalDrone::animate",height=0.2,width=0.4,color="black", fillcolor="grey75", style="filled", fontcolor="black",tooltip="Metoda wirtualna realizujaca animacje (wizualizacje) przemieszczen i rotacji drona z zadana predkosci..."];
  Node1 -> Node2 [color="midnightblue",fontsize="10",style="solid",fontname="Helvetica"];
  Node2 [label="hexagonalDrone::draw",height=0.2,width=0.4,color="black", fillcolor="white", style="filled",URL="$classhexagonal_drone.html#a500ef2f882295b27bb40fe835d617fe9",tooltip="Metoda wirtualna realizujaca rysowanie obiektu w programie gnuplot za pomoca dostarczonego api."];
  Node2 -> Node3 [color="midnightblue",fontsize="10",style="solid",fontname="Helvetica"];
  Node3 [label="hexagonalPrism::draw",height=0.2,width=0.4,color="black", fillcolor="white", style="filled",URL="$classhexagonal_prism.html#ae1fbca5491bfd9a606abfbf099f3385e",tooltip="Metoda wirtualna realizujaca rysowanie obiektu w programie gnuplot za pomoca dostarczonego api."];
  Node3 -> Node4 [color="midnightblue",fontsize="10",style="solid",fontname="Helvetica"];
  Node4 [label="coordinateSystem::convert\lToGlobalPoint3D",height=0.2,width=0.4,color="black", fillcolor="white", style="filled",URL="$classcoordinate_system.html#a1e0b0449493f309511fd2f30b8b05a1a",tooltip="Metoda realizujaca przeliczenie wektora trojwymiarowego z lokalnego ukladu wspolrzednych na Point3D w..."];
  Node4 -> Node5 [color="midnightblue",fontsize="10",style="solid",fontname="Helvetica"];
  Node5 [label="coordinateSystem::convert\lToGlobal",height=0.2,width=0.4,color="black", fillcolor="white", style="filled",URL="$classcoordinate_system.html#a9d9e3640b9bacb26d8c0f41b8e492cdd",tooltip="Metoda realizujaca przeliczenie lokalnego ukladu wspolrzednych do ukladu globalnego."];
  Node5 -> Node6 [color="midnightblue",fontsize="10",style="solid",fontname="Helvetica"];
  Node6 [label="coordinateSystem::convert\lToParent",height=0.2,width=0.4,color="black", fillcolor="white", style="filled",URL="$classcoordinate_system.html#a37bd57d5cedd3a8b465642b3c18a4ae6",tooltip="Metoda realizujaca przeliczenie lokalnego ukladu wspolrzednych do ukladu \"rodzica\"."];
  Node6 -> Node7 [color="midnightblue",fontsize="10",style="solid",fontname="Helvetica"];
  Node7 [label="coordinateSystem::coordinate\lSystem",height=0.2,width=0.4,color="black", fillcolor="white", style="filled",URL="$classcoordinate_system.html#ab78b484084905cbca77d173ec1502899",tooltip="Konstruktor domyslny trojwymiarowego ukladu wspolrzednych."];
  Node1 -> Node8 [color="midnightblue",fontsize="10",style="solid",fontname="Helvetica"];
  Node8 [label="hexagonalDrone::erase",height=0.2,width=0.4,color="black", fillcolor="white", style="filled",URL="$classhexagonal_drone.html#a6a199ce976c3a05be2308e2715934d97",tooltip="Metoda wirtualna realizujaca zmazywanie obiektu w programie gnuplot za pomoca dostarczonego api."];
  Node8 -> Node9 [color="midnightblue",fontsize="10",style="solid",fontname="Helvetica"];
  Node9 [label="hexagonalPrism::erase",height=0.2,width=0.4,color="black", fillcolor="white", style="filled",URL="$classhexagonal_prism.html#ac0c3725242258db0415e40231fc705d3",tooltip="Metoda wirtualna realizujaca zmazywanie obiektu w programie gnuplot za pomoca dostarczonego api."];
  Node1 -> Node10 [color="midnightblue",fontsize="10",style="solid",fontname="Helvetica"];
  Node10 [label="hexagonalDrone::move\l_horizontally",height=0.2,width=0.4,color="black", fillcolor="white", style="filled",URL="$classhexagonal_drone.html#ae9103b6fb372c2d28093198a84a08479",tooltip="Metoda wirtualna realizujaca przemieszczenie drona w kierunku poziomym/horyzontalnym (domyslnie w osi..."];
  Node10 -> Node11 [color="midnightblue",fontsize="10",style="solid",fontname="Helvetica"];
  Node11 [label="coordinateSystem::translate",height=0.2,width=0.4,color="black", fillcolor="white", style="filled",URL="$classcoordinate_system.html#aa4630b9ee4e8166ed15f997ce7140221",tooltip="Metoda realizujaca translacje trojwymiarowego ukladu wspolrzednych."];
  Node1 -> Node12 [color="midnightblue",fontsize="10",style="solid",fontname="Helvetica"];
  Node12 [label="hexagonalDrone::move\l_vertically",height=0.2,width=0.4,color="black", fillcolor="white", style="filled",URL="$classhexagonal_drone.html#a67b67e47d83b4e90851721c83d8ac5e9",tooltip="Metoda wirtualna realizujaca przemieszczenie drona w kierunku pionowym/wertykalnym (domyslnie w osi Z..."];
  Node12 -> Node11 [color="midnightblue",fontsize="10",style="solid",fontname="Helvetica"];
  Node1 -> Node13 [color="midnightblue",fontsize="10",style="solid",fontname="Helvetica"];
  Node13 [label="hexagonalDrone::spin",height=0.2,width=0.4,color="black", fillcolor="white", style="filled",URL="$classhexagonal_drone.html#a16d3eb162e1955d4726c169f43772bdb",tooltip="Metoda wirtualna realizujaca rotacje drona (domyslnie wokol osi Z)."];
  Node13 -> Node14 [color="midnightblue",fontsize="10",style="solid",fontname="Helvetica"];
  Node14 [label="coordinateSystem::rotate",height=0.2,width=0.4,color="black", fillcolor="white", style="filled",URL="$classcoordinate_system.html#aaa81628f4c536c5478f6032993ab1087",tooltip="Metoda realizujaca rotacje trojwymiarowego ukladu wspolrzednych."];
  Node1 -> Node15 [color="midnightblue",fontsize="10",style="solid",fontname="Helvetica"];
  Node15 [label="hexagonalDrone::spin\l_propellers",height=0.2,width=0.4,color="black", fillcolor="white", style="filled",URL="$classhexagonal_drone.html#aa39a617f97b53aa9bf6f44135ee003c0",tooltip="Metoda wirtualna realizujaca rotacje wirnikow drona (domyslnie wokol osi Z)."];
  Node1 -> Node16 [color="midnightblue",fontsize="10",style="solid",fontname="Helvetica"];
  Node16 [label="hexagonalDrone::tilt",height=0.2,width=0.4,color="black", fillcolor="white", style="filled",URL="$classhexagonal_drone.html#a8fdb066edac8e51cd254818db95655ab",tooltip="Metoda wirtualna realizujaca pochylenie drona (domyslnie rotacje wokol osi X)."];
  Node16 -> Node14 [color="midnightblue",fontsize="10",style="solid",fontname="Helvetica"];
}
