digraph "coordinateSystem::convertToParent"
{
 // LATEX_PDF_SIZE
  edge [fontname="Helvetica",fontsize="10",labelfontname="Helvetica",labelfontsize="10"];
  node [fontname="Helvetica",fontsize="10",shape=record];
  rankdir="LR";
  Node1 [label="coordinateSystem::convert\lToParent",height=0.2,width=0.4,color="black", fillcolor="grey75", style="filled", fontcolor="black",tooltip="Metoda realizujaca przeliczenie lokalnego ukladu wspolrzednych do ukladu \"rodzica\"."];
  Node1 -> Node2 [color="midnightblue",fontsize="10",style="solid",fontname="Helvetica"];
  Node2 [label="coordinateSystem::coordinate\lSystem",height=0.2,width=0.4,color="black", fillcolor="white", style="filled",URL="$classcoordinate_system.html#ab78b484084905cbca77d173ec1502899",tooltip="Konstruktor domyslny trojwymiarowego ukladu wspolrzednych."];
}
