digraph "menu::run"
{
 // LATEX_PDF_SIZE
  edge [fontname="Helvetica",fontsize="10",labelfontname="Helvetica",labelfontsize="10"];
  node [fontname="Helvetica",fontsize="10",shape=record];
  rankdir="LR";
  Node1 [label="menu::run",height=0.2,width=0.4,color="black", fillcolor="grey75", style="filled", fontcolor="black",tooltip="Metoda realizujaca pelna funkcjonalnosc menu."];
  Node1 -> Node2 [color="midnightblue",fontsize="10",style="solid",fontname="Helvetica"];
  Node2 [label="menu::init",height=0.2,width=0.4,color="black", fillcolor="white", style="filled",URL="$classmenu.html#a6abc7a16315f0edf41125aed3713ceb9",tooltip="Metoda realizujaca inicjacje menu."];
  Node1 -> Node3 [color="midnightblue",fontsize="10",style="solid",fontname="Helvetica"];
  Node3 [label="menu::printOptions",height=0.2,width=0.4,color="black", fillcolor="white", style="filled",URL="$classmenu.html#a0bf2b24e70a8b3dcaac39993b00bf5eb",tooltip="Metoda realizujaca wypisanie pozycji menu i przypisanie podanego w argumencie atrybutu zaznaczonej po..."];
  Node1 -> Node4 [color="midnightblue",fontsize="10",style="solid",fontname="Helvetica"];
  Node4 [label="menu::scrollDown",height=0.2,width=0.4,color="black", fillcolor="white", style="filled",URL="$classmenu.html#a7482f9275fece5fb816ea2cbb4ea58b3",tooltip="Metoda realizujaca zaznaczenie nastepnej pozycji menu."];
  Node1 -> Node5 [color="midnightblue",fontsize="10",style="solid",fontname="Helvetica"];
  Node5 [label="menu::scrollUp",height=0.2,width=0.4,color="black", fillcolor="white", style="filled",URL="$classmenu.html#a72fe7dda1094f64526dd3763e405aa4e",tooltip="Metoda realizujaca zaznaczenie poprzedniej pozycji menu."];
}
