digraph "hexagonalDrone::spin"
{
 // LATEX_PDF_SIZE
  edge [fontname="Helvetica",fontsize="10",labelfontname="Helvetica",labelfontsize="10"];
  node [fontname="Helvetica",fontsize="10",shape=record];
  rankdir="LR";
  Node1 [label="hexagonalDrone::spin",height=0.2,width=0.4,color="black", fillcolor="grey75", style="filled", fontcolor="black",tooltip="Metoda wirtualna realizujaca rotacje drona (domyslnie wokol osi Z)."];
  Node1 -> Node2 [color="midnightblue",fontsize="10",style="solid",fontname="Helvetica"];
  Node2 [label="coordinateSystem::rotate",height=0.2,width=0.4,color="black", fillcolor="white", style="filled",URL="$classcoordinate_system.html#aaa81628f4c536c5478f6032993ab1087",tooltip="Metoda realizujaca rotacje trojwymiarowego ukladu wspolrzednych."];
}
