digraph "plateau::erase"
{
 // LATEX_PDF_SIZE
  edge [fontname="Helvetica",fontsize="10",labelfontname="Helvetica",labelfontsize="10"];
  node [fontname="Helvetica",fontsize="10",shape=record];
  rankdir="RL";
  Node1 [label="plateau::erase",height=0.2,width=0.4,color="black", fillcolor="grey75", style="filled", fontcolor="black",tooltip="Metoda wirtualna realizujaca zmazywanie obiektu w programie gnuplot za pomoca dostarczonego api."];
  Node1 -> Node2 [dir="back",color="midnightblue",fontsize="10",style="solid",fontname="Helvetica"];
  Node2 [label="plateau::~plateau",height=0.2,width=0.4,color="black", fillcolor="white", style="filled",URL="$classplateau.html#a336a9f14762c3821cf717cca91f6ca86",tooltip="Destruktor umozliwiajacy zmazanie plaskowyzu wraz z jego usunieciem."];
}
