digraph "hexagonalDrone::spin"
{
 // LATEX_PDF_SIZE
  edge [fontname="Helvetica",fontsize="10",labelfontname="Helvetica",labelfontsize="10"];
  node [fontname="Helvetica",fontsize="10",shape=record];
  rankdir="RL";
  Node1 [label="hexagonalDrone::spin",height=0.2,width=0.4,color="black", fillcolor="grey75", style="filled", fontcolor="black",tooltip="Metoda wirtualna realizujaca rotacje drona (domyslnie wokol osi Z)."];
  Node1 -> Node2 [dir="back",color="midnightblue",fontsize="10",style="solid",fontname="Helvetica"];
  Node2 [label="hexagonalDrone::animate",height=0.2,width=0.4,color="black", fillcolor="white", style="filled",URL="$classhexagonal_drone.html#abd2efdea6bc146494079fa47b01a578b",tooltip="Metoda wirtualna realizujaca animacje (wizualizacje) przemieszczen i rotacji drona z zadana predkosci..."];
}
