digraph "cuboidalPlateau::cuboidalPlateau"
{
 // LATEX_PDF_SIZE
  edge [fontname="Helvetica",fontsize="10",labelfontname="Helvetica",labelfontsize="10"];
  node [fontname="Helvetica",fontsize="10",shape=record];
  rankdir="LR";
  Node1 [label="cuboidalPlateau::cuboidal\lPlateau",height=0.2,width=0.4,color="black", fillcolor="grey75", style="filled", fontcolor="black",tooltip="Konstruktor inicjalizujacy podstawowe parametry losowo wygenerowanego plaskowyzu prostopadlosciennego..."];
  Node1 -> Node2 [color="midnightblue",fontsize="10",style="solid",fontname="Helvetica"];
  Node2 [label="cuboid::draw",height=0.2,width=0.4,color="black", fillcolor="white", style="filled",URL="$classcuboid.html#aa4a9c19626b789ff793d7b19acec97ce",tooltip="Metoda wirtualna realizujaca rysowanie obiektu w programie gnuplot za pomoca dostarczonego api."];
  Node2 -> Node3 [color="midnightblue",fontsize="10",style="solid",fontname="Helvetica"];
  Node3 [label="coordinateSystem::convert\lToGlobalPoint3D",height=0.2,width=0.4,color="black", fillcolor="white", style="filled",URL="$classcoordinate_system.html#a1e0b0449493f309511fd2f30b8b05a1a",tooltip="Metoda realizujaca przeliczenie wektora trojwymiarowego z lokalnego ukladu wspolrzednych na Point3D w..."];
  Node3 -> Node4 [color="midnightblue",fontsize="10",style="solid",fontname="Helvetica"];
  Node4 [label="coordinateSystem::convert\lToGlobal",height=0.2,width=0.4,color="black", fillcolor="white", style="filled",URL="$classcoordinate_system.html#a9d9e3640b9bacb26d8c0f41b8e492cdd",tooltip="Metoda realizujaca przeliczenie lokalnego ukladu wspolrzednych do ukladu globalnego."];
  Node4 -> Node5 [color="midnightblue",fontsize="10",style="solid",fontname="Helvetica"];
  Node5 [label="coordinateSystem::convert\lToParent",height=0.2,width=0.4,color="black", fillcolor="white", style="filled",URL="$classcoordinate_system.html#a37bd57d5cedd3a8b465642b3c18a4ae6",tooltip="Metoda realizujaca przeliczenie lokalnego ukladu wspolrzednych do ukladu \"rodzica\"."];
  Node5 -> Node6 [color="midnightblue",fontsize="10",style="solid",fontname="Helvetica"];
  Node6 [label="coordinateSystem::coordinate\lSystem",height=0.2,width=0.4,color="black", fillcolor="white", style="filled",URL="$classcoordinate_system.html#ab78b484084905cbca77d173ec1502899",tooltip="Konstruktor domyslny trojwymiarowego ukladu wspolrzednych."];
}
