digraph "menu::printOptions"
{
 // LATEX_PDF_SIZE
  edge [fontname="Helvetica",fontsize="10",labelfontname="Helvetica",labelfontsize="10"];
  node [fontname="Helvetica",fontsize="10",shape=record];
  rankdir="RL";
  Node1 [label="menu::printOptions",height=0.2,width=0.4,color="black", fillcolor="grey75", style="filled", fontcolor="black",tooltip="Metoda realizujaca wypisanie pozycji menu i przypisanie podanego w argumencie atrybutu zaznaczonej po..."];
  Node1 -> Node2 [dir="back",color="midnightblue",fontsize="10",style="solid",fontname="Helvetica"];
  Node2 [label="menu::run",height=0.2,width=0.4,color="black", fillcolor="white", style="filled",URL="$classmenu.html#a8d1ce798dd304e75c24b3c48ac76d2f4",tooltip="Metoda realizujaca pelna funkcjonalnosc menu."];
  Node2 -> Node3 [dir="back",color="midnightblue",fontsize="10",style="solid",fontname="Helvetica"];
  Node3 [label="main",height=0.2,width=0.4,color="black", fillcolor="white", style="filled",URL="$main_8cpp.html#ae66f6b31b5ad750f1fe042a706a4e3d4",tooltip=" "];
}
