digraph "coordinateSystem::convertToGlobalPoint3D"
{
 // LATEX_PDF_SIZE
  edge [fontname="Helvetica",fontsize="10",labelfontname="Helvetica",labelfontsize="10"];
  node [fontname="Helvetica",fontsize="10",shape=record];
  rankdir="RL";
  Node1 [label="coordinateSystem::convert\lToGlobalPoint3D",height=0.2,width=0.4,color="black", fillcolor="grey75", style="filled", fontcolor="black",tooltip="Metoda realizujaca przeliczenie wektora trojwymiarowego z lokalnego ukladu wspolrzednych na Point3D w..."];
  Node1 -> Node2 [dir="back",color="midnightblue",fontsize="10",style="solid",fontname="Helvetica"];
  Node2 [label="hill::draw",height=0.2,width=0.4,color="black", fillcolor="white", style="filled",URL="$classhill.html#a951d8569d1e85787c726899077761b3b",tooltip="Metoda wirtualna realizujaca rysowanie obiektu w programie gnuplot za pomoca dostarczonego api."];
  Node2 -> Node3 [dir="back",color="midnightblue",fontsize="10",style="solid",fontname="Helvetica"];
  Node3 [label="hill::hill",height=0.2,width=0.4,color="black", fillcolor="white", style="filled",URL="$classhill.html#a1fd4f63a53376bbda90fc40ef1d89fed",tooltip="Konstruktor inicjalizujacy podstawowe parametry losowo wygenerowanego wzgorza."];
  Node1 -> Node4 [dir="back",color="midnightblue",fontsize="10",style="solid",fontname="Helvetica"];
  Node4 [label="plateau::draw",height=0.2,width=0.4,color="black", fillcolor="white", style="filled",URL="$classplateau.html#a5b3802dd049b465fb10775d909076454",tooltip="Metoda wirtualna realizujaca rysowanie obiektu w programie gnuplot za pomoca dostarczonego api."];
  Node4 -> Node5 [dir="back",color="midnightblue",fontsize="10",style="solid",fontname="Helvetica"];
  Node5 [label="plateau::plateau",height=0.2,width=0.4,color="black", fillcolor="white", style="filled",URL="$classplateau.html#ab058bb6f8558a76a16a855d5d2809a23",tooltip="Konstruktor inicjalizujacy interfejs rysowania, poszczegolne wymiary i kolor powierzchni plaskiej."];
  Node1 -> Node6 [dir="back",color="midnightblue",fontsize="10",style="solid",fontname="Helvetica"];
  Node6 [label="hexagonalPrism::draw",height=0.2,width=0.4,color="black", fillcolor="white", style="filled",URL="$classhexagonal_prism.html#ae1fbca5491bfd9a606abfbf099f3385e",tooltip="Metoda wirtualna realizujaca rysowanie obiektu w programie gnuplot za pomoca dostarczonego api."];
  Node6 -> Node7 [dir="back",color="midnightblue",fontsize="10",style="solid",fontname="Helvetica"];
  Node7 [label="hexagonalDrone::draw",height=0.2,width=0.4,color="black", fillcolor="white", style="filled",URL="$classhexagonal_drone.html#a500ef2f882295b27bb40fe835d617fe9",tooltip="Metoda wirtualna realizujaca rysowanie obiektu w programie gnuplot za pomoca dostarczonego api."];
  Node7 -> Node8 [dir="back",color="midnightblue",fontsize="10",style="solid",fontname="Helvetica"];
  Node8 [label="hexagonalDrone::animate",height=0.2,width=0.4,color="black", fillcolor="white", style="filled",URL="$classhexagonal_drone.html#abd2efdea6bc146494079fa47b01a578b",tooltip="Metoda wirtualna realizujaca animacje (wizualizacje) przemieszczen i rotacji drona z zadana predkosci..."];
  Node1 -> Node9 [dir="back",color="midnightblue",fontsize="10",style="solid",fontname="Helvetica"];
  Node9 [label="cuboid::draw",height=0.2,width=0.4,color="black", fillcolor="white", style="filled",URL="$classcuboid.html#aa4a9c19626b789ff793d7b19acec97ce",tooltip="Metoda wirtualna realizujaca rysowanie obiektu w programie gnuplot za pomoca dostarczonego api."];
  Node9 -> Node10 [dir="back",color="midnightblue",fontsize="10",style="solid",fontname="Helvetica"];
  Node10 [label="cuboidalPlateau::cuboidal\lPlateau",height=0.2,width=0.4,color="black", fillcolor="white", style="filled",URL="$classcuboidal_plateau.html#aa81f97a99a1cf753136fd160ddbcb3e1",tooltip="Konstruktor inicjalizujacy podstawowe parametry losowo wygenerowanego plaskowyzu prostopadlosciennego..."];
  Node9 -> Node11 [dir="back",color="midnightblue",fontsize="10",style="solid",fontname="Helvetica"];
  Node11 [label="basicDrone::draw",height=0.2,width=0.4,color="black", fillcolor="white", style="filled",URL="$classbasic_drone.html#a5f26619a4600f5943ec8db0264266c96",tooltip="Metoda wirtualna realizujaca rysowanie obiektu w programie gnuplot za pomoca dostarczonego api."];
  Node11 -> Node12 [dir="back",color="midnightblue",fontsize="10",style="solid",fontname="Helvetica"];
  Node12 [label="basicDrone::animate",height=0.2,width=0.4,color="black", fillcolor="white", style="filled",URL="$classbasic_drone.html#a1494182d1f2e07173b5acf8723724b6a",tooltip="Metoda wirtualna realizujaca animacje (wizualizacje) przemieszczen i rotacji drona z zadana predkosci..."];
}
