digraph "drawNS::APIGnuPlot3D::stop_drawing_proces"
{
 // LATEX_PDF_SIZE
  edge [fontname="Helvetica",fontsize="10",labelfontname="Helvetica",labelfontsize="10"];
  node [fontname="Helvetica",fontsize="10",shape=record];
  rankdir="RL";
  Node1 [label="drawNS::APIGnuPlot3D\l::stop_drawing_proces",height=0.2,width=0.4,color="black", fillcolor="grey75", style="filled", fontcolor="black",tooltip=" "];
  Node1 -> Node2 [dir="back",color="midnightblue",fontsize="10",style="solid",fontname="Helvetica"];
  Node2 [label="drawNS::APIGnuPlot3D\l::~APIGnuPlot3D",height=0.2,width=0.4,color="black", fillcolor="white", style="filled",URL="$classdraw_n_s_1_1_a_p_i_gnu_plot3_d.html#a7b0e682d183fbfbdd044d63fb672d19c",tooltip="destructor, also stops gnuplot proces."];
}
