digraph "cuboid::erase"
{
 // LATEX_PDF_SIZE
  edge [fontname="Helvetica",fontsize="10",labelfontname="Helvetica",labelfontsize="10"];
  node [fontname="Helvetica",fontsize="10",shape=record];
  rankdir="RL";
  Node1 [label="cuboid::erase",height=0.2,width=0.4,color="black", fillcolor="grey75", style="filled", fontcolor="black",tooltip="Metoda wirtualna realizujaca zmazywanie obiektu w programie gnuplot za pomoca dostarczonego api."];
  Node1 -> Node2 [dir="back",color="midnightblue",fontsize="10",style="solid",fontname="Helvetica"];
  Node2 [label="basicDrone::erase",height=0.2,width=0.4,color="black", fillcolor="white", style="filled",URL="$classbasic_drone.html#a8ab53f910ac83b6f8d819b6f07593a81",tooltip="Metoda wirtualna realizujaca zmazywanie obiektu w programie gnuplot za pomoca dostarczonego api."];
  Node2 -> Node3 [dir="back",color="midnightblue",fontsize="10",style="solid",fontname="Helvetica"];
  Node3 [label="basicDrone::animate",height=0.2,width=0.4,color="black", fillcolor="white", style="filled",URL="$classbasic_drone.html#a1494182d1f2e07173b5acf8723724b6a",tooltip="Metoda wirtualna realizujaca animacje (wizualizacje) przemieszczen i rotacji drona z zadana predkosci..."];
  Node2 -> Node4 [dir="back",color="midnightblue",fontsize="10",style="solid",fontname="Helvetica"];
  Node4 [label="basicDrone::~basicDrone",height=0.2,width=0.4,color="black", fillcolor="white", style="filled",URL="$classbasic_drone.html#a61e69a7b0183b3a4ab70de8bc7e703fe",tooltip="Destruktor umozliwiajacy zmazanie drona wraz z jego usunieciem."];
  Node1 -> Node5 [dir="back",color="midnightblue",fontsize="10",style="solid",fontname="Helvetica"];
  Node5 [label="cuboid::~cuboid",height=0.2,width=0.4,color="black", fillcolor="white", style="filled",URL="$classcuboid.html#a000294edb8ab1d40bce55f664598d9c0",tooltip="Destruktor umozliwiajacy zmazanie prostopadloscianu wraz z jego usunieciem."];
  Node1 -> Node6 [dir="back",color="midnightblue",fontsize="10",style="solid",fontname="Helvetica"];
  Node6 [label="cuboidalPlateau::~cuboidal\lPlateau",height=0.2,width=0.4,color="black", fillcolor="white", style="filled",URL="$classcuboidal_plateau.html#a0b8fc6f2d9b75faa907843c9b6fe040d",tooltip="Destruktor umozliwiajacy zmazanie plaskowyzu prostopadlosciennego wraz z jego usunieciem."];
}
