digraph "basicDrone::animate"
{
 // LATEX_PDF_SIZE
  edge [fontname="Helvetica",fontsize="10",labelfontname="Helvetica",labelfontsize="10"];
  node [fontname="Helvetica",fontsize="10",shape=record];
  rankdir="LR";
  Node1 [label="basicDrone::animate",height=0.2,width=0.4,color="black", fillcolor="grey75", style="filled", fontcolor="black",tooltip="Metoda wirtualna realizujaca animacje (wizualizacje) przemieszczen i rotacji drona z zadana predkosci..."];
  Node1 -> Node2 [color="midnightblue",fontsize="10",style="solid",fontname="Helvetica"];
  Node2 [label="basicDrone::draw",height=0.2,width=0.4,color="black", fillcolor="white", style="filled",URL="$classbasic_drone.html#a5f26619a4600f5943ec8db0264266c96",tooltip="Metoda wirtualna realizujaca rysowanie obiektu w programie gnuplot za pomoca dostarczonego api."];
  Node2 -> Node3 [color="midnightblue",fontsize="10",style="solid",fontname="Helvetica"];
  Node3 [label="cuboid::draw",height=0.2,width=0.4,color="black", fillcolor="white", style="filled",URL="$classcuboid.html#aa4a9c19626b789ff793d7b19acec97ce",tooltip="Metoda wirtualna realizujaca rysowanie obiektu w programie gnuplot za pomoca dostarczonego api."];
  Node3 -> Node4 [color="midnightblue",fontsize="10",style="solid",fontname="Helvetica"];
  Node4 [label="coordinateSystem::convert\lToGlobalPoint3D",height=0.2,width=0.4,color="black", fillcolor="white", style="filled",URL="$classcoordinate_system.html#a1e0b0449493f309511fd2f30b8b05a1a",tooltip="Metoda realizujaca przeliczenie wektora trojwymiarowego z lokalnego ukladu wspolrzednych na Point3D w..."];
  Node4 -> Node5 [color="midnightblue",fontsize="10",style="solid",fontname="Helvetica"];
  Node5 [label="coordinateSystem::convert\lToGlobal",height=0.2,width=0.4,color="black", fillcolor="white", style="filled",URL="$classcoordinate_system.html#a9d9e3640b9bacb26d8c0f41b8e492cdd",tooltip="Metoda realizujaca przeliczenie lokalnego ukladu wspolrzednych do ukladu globalnego."];
  Node5 -> Node6 [color="midnightblue",fontsize="10",style="solid",fontname="Helvetica"];
  Node6 [label="coordinateSystem::convert\lToParent",height=0.2,width=0.4,color="black", fillcolor="white", style="filled",URL="$classcoordinate_system.html#a37bd57d5cedd3a8b465642b3c18a4ae6",tooltip="Metoda realizujaca przeliczenie lokalnego ukladu wspolrzednych do ukladu \"rodzica\"."];
  Node6 -> Node7 [color="midnightblue",fontsize="10",style="solid",fontname="Helvetica"];
  Node7 [label="coordinateSystem::coordinate\lSystem",height=0.2,width=0.4,color="black", fillcolor="white", style="filled",URL="$classcoordinate_system.html#ab78b484084905cbca77d173ec1502899",tooltip="Konstruktor domyslny trojwymiarowego ukladu wspolrzednych."];
  Node1 -> Node8 [color="midnightblue",fontsize="10",style="solid",fontname="Helvetica"];
  Node8 [label="basicDrone::erase",height=0.2,width=0.4,color="black", fillcolor="white", style="filled",URL="$classbasic_drone.html#a8ab53f910ac83b6f8d819b6f07593a81",tooltip="Metoda wirtualna realizujaca zmazywanie obiektu w programie gnuplot za pomoca dostarczonego api."];
  Node8 -> Node9 [color="midnightblue",fontsize="10",style="solid",fontname="Helvetica"];
  Node9 [label="cuboid::erase",height=0.2,width=0.4,color="black", fillcolor="white", style="filled",URL="$classcuboid.html#aa89e1a74932b9060505c52e3999446bd",tooltip="Metoda wirtualna realizujaca zmazywanie obiektu w programie gnuplot za pomoca dostarczonego api."];
  Node1 -> Node10 [color="midnightblue",fontsize="10",style="solid",fontname="Helvetica"];
  Node10 [label="basicDrone::move_horizontally",height=0.2,width=0.4,color="black", fillcolor="white", style="filled",URL="$classbasic_drone.html#a916b84f3c01ad7fb75b8cccf11f6b28a",tooltip="Metoda wirtualna realizujaca przemieszczenie drona w kierunku poziomym/horyzontalnym (domyslnie w osi..."];
  Node10 -> Node11 [color="midnightblue",fontsize="10",style="solid",fontname="Helvetica"];
  Node11 [label="coordinateSystem::translate",height=0.2,width=0.4,color="black", fillcolor="white", style="filled",URL="$classcoordinate_system.html#aa4630b9ee4e8166ed15f997ce7140221",tooltip="Metoda realizujaca translacje trojwymiarowego ukladu wspolrzednych."];
  Node1 -> Node12 [color="midnightblue",fontsize="10",style="solid",fontname="Helvetica"];
  Node12 [label="basicDrone::move_vertically",height=0.2,width=0.4,color="black", fillcolor="white", style="filled",URL="$classbasic_drone.html#ab79b2b59bef37290233d4344b0f28c7f",tooltip="Metoda wirtualna realizujaca przemieszczenie drona w kierunku pionowym/wertykalnym (domyslnie w osi Z..."];
  Node12 -> Node11 [color="midnightblue",fontsize="10",style="solid",fontname="Helvetica"];
  Node1 -> Node13 [color="midnightblue",fontsize="10",style="solid",fontname="Helvetica"];
  Node13 [label="basicDrone::spin",height=0.2,width=0.4,color="black", fillcolor="white", style="filled",URL="$classbasic_drone.html#a771d97049917d3e4635256ebc04d0d64",tooltip="Metoda wirtualna realizujaca rotacje drona (domyslnie wokol osi Z)."];
  Node13 -> Node14 [color="midnightblue",fontsize="10",style="solid",fontname="Helvetica"];
  Node14 [label="coordinateSystem::rotate",height=0.2,width=0.4,color="black", fillcolor="white", style="filled",URL="$classcoordinate_system.html#aaa81628f4c536c5478f6032993ab1087",tooltip="Metoda realizujaca rotacje trojwymiarowego ukladu wspolrzednych."];
  Node1 -> Node15 [color="midnightblue",fontsize="10",style="solid",fontname="Helvetica"];
  Node15 [label="basicDrone::spin_propellers",height=0.2,width=0.4,color="black", fillcolor="white", style="filled",URL="$classbasic_drone.html#a784b4b3b5c5e681ca72ef499b5d3dacf",tooltip="Metoda wirtualna realizujaca rotacje wirnikow drona (domyslnie wokol osi Z)."];
  Node1 -> Node16 [color="midnightblue",fontsize="10",style="solid",fontname="Helvetica"];
  Node16 [label="basicDrone::tilt",height=0.2,width=0.4,color="black", fillcolor="white", style="filled",URL="$classbasic_drone.html#a6da3613910fbdc9b6c71a380e98f4d7c",tooltip="Metoda wirtualna realizujaca pochylenie drona (domyslnie rotacje wokol osi X)."];
  Node16 -> Node14 [color="midnightblue",fontsize="10",style="solid",fontname="Helvetica"];
}
