digraph "rotationMatrixMD::transpose"
{
 // LATEX_PDF_SIZE
  edge [fontname="Helvetica",fontsize="10",labelfontname="Helvetica",labelfontsize="10"];
  node [fontname="Helvetica",fontsize="10",shape=record];
  rankdir="RL";
  Node1 [label="rotationMatrixMD::transpose",height=0.2,width=0.4,color="black", fillcolor="grey75", style="filled", fontcolor="black",tooltip="Metoda pozwalajaca na transpozycje macierzy rotacji."];
  Node1 -> Node2 [dir="back",color="midnightblue",fontsize="10",style="solid",fontname="Helvetica"];
  Node2 [label="rotationMatrixMD\< 3\l \>::operator*",height=0.2,width=0.4,color="black", fillcolor="white", style="filled",URL="$classrotation_matrix_m_d.html#af09350c89e78cf88e851940729bd9cfd",tooltip="Operator iloczynu dwoch macierzy rotacji."];
}
