digraph "drawNS::APIGnuPlot3D::~APIGnuPlot3D"
{
 // LATEX_PDF_SIZE
  edge [fontname="Helvetica",fontsize="10",labelfontname="Helvetica",labelfontsize="10"];
  node [fontname="Helvetica",fontsize="10",shape=record];
  rankdir="LR";
  Node1 [label="drawNS::APIGnuPlot3D\l::~APIGnuPlot3D",height=0.2,width=0.4,color="black", fillcolor="grey75", style="filled", fontcolor="black",tooltip="destructor, also stops gnuplot proces."];
  Node1 -> Node2 [color="midnightblue",fontsize="10",style="solid",fontname="Helvetica"];
  Node2 [label="drawNS::APIGnuPlot3D\l::stop_drawing_proces",height=0.2,width=0.4,color="black", fillcolor="white", style="filled",URL="$classdraw_n_s_1_1_a_p_i_gnu_plot3_d.html#af9507e24c3fd5bad9e75b00f30cc9f80",tooltip=" "];
}
