digraph "drawNS::APIGnuPlot3D::translate_color"
{
 // LATEX_PDF_SIZE
  edge [fontname="Helvetica",fontsize="10",labelfontname="Helvetica",labelfontsize="10"];
  node [fontname="Helvetica",fontsize="10",shape=record];
  rankdir="RL";
  Node1 [label="drawNS::APIGnuPlot3D\l::translate_color",height=0.2,width=0.4,color="black", fillcolor="grey75", style="filled", fontcolor="black",tooltip=" "];
  Node1 -> Node2 [dir="back",color="midnightblue",fontsize="10",style="solid",fontname="Helvetica"];
  Node2 [label="drawNS::APIGnuPlot3D\l::draw_all_shapes",height=0.2,width=0.4,color="black", fillcolor="white", style="filled",URL="$classdraw_n_s_1_1_a_p_i_gnu_plot3_d.html#a53c7266030db13ac1e6045797c3e1b75",tooltip=" "];
  Node2 -> Node3 [dir="back",color="midnightblue",fontsize="10",style="solid",fontname="Helvetica"];
  Node3 [label="drawNS::APIGnuPlot3D\l::change_shape_color",height=0.2,width=0.4,color="black", fillcolor="white", style="filled",URL="$classdraw_n_s_1_1_a_p_i_gnu_plot3_d.html#ac33b91c7e171909c6ae2fcfbf7b915b1",tooltip="change color of shape"];
  Node2 -> Node4 [dir="back",color="midnightblue",fontsize="10",style="solid",fontname="Helvetica"];
  Node4 [label="drawNS::APIGnuPlot3D\l::draw_line",height=0.2,width=0.4,color="black", fillcolor="white", style="filled",URL="$classdraw_n_s_1_1_a_p_i_gnu_plot3_d.html#a258e809fc5faa7884ef0e339a4bcf608",tooltip="draws line between 2 points"];
  Node2 -> Node5 [dir="back",color="midnightblue",fontsize="10",style="solid",fontname="Helvetica"];
  Node5 [label="drawNS::APIGnuPlot3D\l::draw_polygonal_chain",height=0.2,width=0.4,color="black", fillcolor="white", style="filled",URL="$classdraw_n_s_1_1_a_p_i_gnu_plot3_d.html#a57e1102221d08157dab5037bdb20cbcc",tooltip="draws polygonal_chain between n points"];
  Node2 -> Node6 [dir="back",color="midnightblue",fontsize="10",style="solid",fontname="Helvetica"];
  Node6 [label="drawNS::APIGnuPlot3D\l::draw_surface",height=0.2,width=0.4,color="black", fillcolor="white", style="filled",URL="$classdraw_n_s_1_1_a_p_i_gnu_plot3_d.html#afc9b4e6c71a0377d881ece405a64a0e4",tooltip="draws surface described by its points"];
  Node6 -> Node7 [dir="back",color="midnightblue",fontsize="10",style="solid",fontname="Helvetica"];
  Node7 [label="drawNS::APIGnuPlot3D\l::draw_polyhedron",height=0.2,width=0.4,color="black", fillcolor="white", style="filled",URL="$classdraw_n_s_1_1_a_p_i_gnu_plot3_d.html#ac5237f08f9923f785928fec32805e31c",tooltip="draws polyhedron described by its apexs"];
  Node2 -> Node8 [dir="back",color="midnightblue",fontsize="10",style="solid",fontname="Helvetica"];
  Node8 [label="drawNS::APIGnuPlot3D\l::erase_shape",height=0.2,width=0.4,color="black", fillcolor="white", style="filled",URL="$classdraw_n_s_1_1_a_p_i_gnu_plot3_d.html#a837c1e656cdd7f3c1d64f373552b1766",tooltip="erase shape by id"];
  Node2 -> Node9 [dir="back",color="midnightblue",fontsize="10",style="solid",fontname="Helvetica"];
  Node9 [label="drawNS::APIGnuPlot3D\l::redraw",height=0.2,width=0.4,color="black", fillcolor="white", style="filled",URL="$classdraw_n_s_1_1_a_p_i_gnu_plot3_d.html#a27a110521a511f0c75e5c867f247a3f6",tooltip="replot all shapes Replots all shapes, works only in negative refresh_rate_ms value mode."];
  Node2 -> Node10 [dir="back",color="midnightblue",fontsize="10",style="solid",fontname="Helvetica"];
  Node10 [label="drawNS::APIGnuPlot3D\l::replot_loop",height=0.2,width=0.4,color="black", fillcolor="white", style="filled",URL="$classdraw_n_s_1_1_a_p_i_gnu_plot3_d.html#afa364d7d8a0a74d51b680a9560e1f1ed",tooltip=" "];
  Node10 -> Node11 [dir="back",color="midnightblue",fontsize="10",style="solid",fontname="Helvetica"];
  Node11 [label="drawNS::APIGnuPlot3D\l::APIGnuPlot3D",height=0.2,width=0.4,color="black", fillcolor="white", style="filled",URL="$classdraw_n_s_1_1_a_p_i_gnu_plot3_d.html#a9fd786880bdcfc90d260127a83362a01",tooltip="Constructor."];
  Node10 -> Node12 [dir="back",color="midnightblue",fontsize="10",style="solid",fontname="Helvetica"];
  Node12 [label="drawNS::APIGnuPlot3D\l::change_ref_time_ms",height=0.2,width=0.4,color="black", fillcolor="white", style="filled",URL="$classdraw_n_s_1_1_a_p_i_gnu_plot3_d.html#aa7da7ed9eaaea392a5710143fda0da67",tooltip="change mode for ploting and/or time between auto-replots"];
}
