digraph "hexagonalDrone::get_width"
{
 // LATEX_PDF_SIZE
  edge [fontname="Helvetica",fontsize="10",labelfontname="Helvetica",labelfontsize="10"];
  node [fontname="Helvetica",fontsize="10",shape=record];
  rankdir="RL";
  Node1 [label="hexagonalDrone::get\l_width",height=0.2,width=0.4,color="black", fillcolor="grey75", style="filled", fontcolor="black",tooltip="Wirtualna metoda dostepowa do szerokosci korpusu drona."];
  Node1 -> Node2 [dir="back",color="midnightblue",fontsize="10",style="solid",fontname="Helvetica"];
  Node2 [label="hexagonalDrone::is\l_above",height=0.2,width=0.4,color="black", fillcolor="white", style="filled",URL="$classhexagonal_drone.html#a4c12c29a22caa96cabdf0561b56b2490",tooltip="Metoda wirtualna realizujaca sprawdzenie, czy dron znajduje sie nad elementem krajobrazu."];
}
