digraph "coordinateSystem::get_centroid"
{
 // LATEX_PDF_SIZE
  edge [fontname="Helvetica",fontsize="10",labelfontname="Helvetica",labelfontsize="10"];
  node [fontname="Helvetica",fontsize="10",shape=record];
  rankdir="RL";
  Node1 [label="coordinateSystem::get\l_centroid",height=0.2,width=0.4,color="black", fillcolor="grey75", style="filled", fontcolor="black",tooltip="Metoda dostepowa do srodka ukladu wspolrzednych."];
  Node1 -> Node2 [dir="back",color="midnightblue",fontsize="10",style="solid",fontname="Helvetica"];
  Node2 [label="hexagonalDrone::get\l_centroid",height=0.2,width=0.4,color="black", fillcolor="white", style="filled",URL="$classhexagonal_drone.html#a7f19a0c7bce10ae8068c533e7bf189a1",tooltip="Wirtualna metoda dostepowa do srodka ukladu wspolrzednych korpusu drona."];
  Node1 -> Node3 [dir="back",color="midnightblue",fontsize="10",style="solid",fontname="Helvetica"];
  Node3 [label="basicDrone::get_centroid",height=0.2,width=0.4,color="black", fillcolor="white", style="filled",URL="$classbasic_drone.html#a6240bd0285b26cfbaa1efdd076fb9c85",tooltip="Wirtualna metoda dostepowa do srodka ukladu wspolrzednych korpusu drona."];
  Node1 -> Node4 [dir="back",color="midnightblue",fontsize="10",style="solid",fontname="Helvetica"];
  Node4 [label="hill::is_above",height=0.2,width=0.4,color="black", fillcolor="white", style="filled",URL="$classhill.html#aefa38b166ecebb7c8e0a47cb18fcaa20",tooltip="Metoda wirtualna realizujaca sprawdzenie, czy dron znajduje sie nad elementem krajobrazu."];
  Node1 -> Node5 [dir="back",color="midnightblue",fontsize="10",style="solid",fontname="Helvetica"];
  Node5 [label="plateau::is_above",height=0.2,width=0.4,color="black", fillcolor="white", style="filled",URL="$classplateau.html#a4c18d3e01cfe2b6185bc91eaa4cca5dd",tooltip="Metoda wirtualna realizujaca sprawdzenie, czy dron znajduje sie nad elementem krajobrazu."];
}
