digraph "inc/Draw3D_api_interface.hpp"
{
 // LATEX_PDF_SIZE
  edge [fontname="Helvetica",fontsize="10",labelfontname="Helvetica",labelfontsize="10"];
  node [fontname="Helvetica",fontsize="10",shape=record];
  Node1 [label="inc/Draw3D_api_interface.hpp",height=0.2,width=0.4,color="black", fillcolor="grey75", style="filled", fontcolor="black",tooltip=" "];
  Node1 -> Node2 [dir="back",color="midnightblue",fontsize="10",style="solid",fontname="Helvetica"];
  Node2 [label="inc/Dr3D_gnuplot_api.hpp",height=0.2,width=0.4,color="black", fillcolor="white", style="filled",URL="$_dr3_d__gnuplot__api_8hpp.html",tooltip=" "];
  Node2 -> Node3 [dir="back",color="midnightblue",fontsize="10",style="solid",fontname="Helvetica"];
  Node3 [label="src/basicDrone.cpp",height=0.2,width=0.4,color="black", fillcolor="white", style="filled",URL="$basic_drone_8cpp.html",tooltip=" "];
  Node2 -> Node4 [dir="back",color="midnightblue",fontsize="10",style="solid",fontname="Helvetica"];
  Node4 [label="src/Dr3D_gnuplot_api.cpp",height=0.2,width=0.4,color="black", fillcolor="white", style="filled",URL="$_dr3_d__gnuplot__api_8cpp.html",tooltip=" "];
  Node2 -> Node5 [dir="back",color="midnightblue",fontsize="10",style="solid",fontname="Helvetica"];
  Node5 [label="src/hexagonalDrone.cpp",height=0.2,width=0.4,color="black", fillcolor="white", style="filled",URL="$hexagonal_drone_8cpp.html",tooltip=" "];
  Node2 -> Node6 [dir="back",color="midnightblue",fontsize="10",style="solid",fontname="Helvetica"];
  Node6 [label="src/main.cpp",height=0.2,width=0.4,color="black", fillcolor="white", style="filled",URL="$main_8cpp.html",tooltip=" "];
  Node2 -> Node7 [dir="back",color="midnightblue",fontsize="10",style="solid",fontname="Helvetica"];
  Node7 [label="inc/coordinateSystem.hpp",height=0.2,width=0.4,color="black", fillcolor="white", style="filled",URL="$coordinate_system_8hpp.html",tooltip=" "];
  Node7 -> Node8 [dir="back",color="midnightblue",fontsize="10",style="solid",fontname="Helvetica"];
  Node8 [label="src/coordinateSystem.cpp",height=0.2,width=0.4,color="black", fillcolor="white", style="filled",URL="$coordinate_system_8cpp.html",tooltip=" "];
  Node7 -> Node9 [dir="back",color="midnightblue",fontsize="10",style="solid",fontname="Helvetica"];
  Node9 [label="inc/basicDrone.hpp",height=0.2,width=0.4,color="black", fillcolor="white", style="filled",URL="$basic_drone_8hpp.html",tooltip=" "];
  Node9 -> Node3 [dir="back",color="midnightblue",fontsize="10",style="solid",fontname="Helvetica"];
  Node9 -> Node6 [dir="back",color="midnightblue",fontsize="10",style="solid",fontname="Helvetica"];
  Node7 -> Node10 [dir="back",color="midnightblue",fontsize="10",style="solid",fontname="Helvetica"];
  Node10 [label="inc/cuboid.hpp",height=0.2,width=0.4,color="black", fillcolor="white", style="filled",URL="$cuboid_8hpp.html",tooltip=" "];
  Node10 -> Node11 [dir="back",color="midnightblue",fontsize="10",style="solid",fontname="Helvetica"];
  Node11 [label="src/cuboid.cpp",height=0.2,width=0.4,color="black", fillcolor="white", style="filled",URL="$cuboid_8cpp.html",tooltip=" "];
  Node10 -> Node9 [dir="back",color="midnightblue",fontsize="10",style="solid",fontname="Helvetica"];
  Node10 -> Node12 [dir="back",color="midnightblue",fontsize="10",style="solid",fontname="Helvetica"];
  Node12 [label="inc/cuboidalPlateau.hpp",height=0.2,width=0.4,color="black", fillcolor="white", style="filled",URL="$cuboidal_plateau_8hpp.html",tooltip=" "];
  Node12 -> Node13 [dir="back",color="midnightblue",fontsize="10",style="solid",fontname="Helvetica"];
  Node13 [label="src/cuboidalPlateau.cpp",height=0.2,width=0.4,color="black", fillcolor="white", style="filled",URL="$cuboidal_plateau_8cpp.html",tooltip=" "];
  Node12 -> Node6 [dir="back",color="midnightblue",fontsize="10",style="solid",fontname="Helvetica"];
  Node10 -> Node14 [dir="back",color="midnightblue",fontsize="10",style="solid",fontname="Helvetica"];
  Node14 [label="inc/hexagonalDrone.hpp",height=0.2,width=0.4,color="black", fillcolor="white", style="filled",URL="$hexagonal_drone_8hpp.html",tooltip=" "];
  Node14 -> Node5 [dir="back",color="midnightblue",fontsize="10",style="solid",fontname="Helvetica"];
  Node14 -> Node6 [dir="back",color="midnightblue",fontsize="10",style="solid",fontname="Helvetica"];
  Node7 -> Node15 [dir="back",color="midnightblue",fontsize="10",style="solid",fontname="Helvetica"];
  Node15 [label="inc/hexagonalPrism.hpp",height=0.2,width=0.4,color="black", fillcolor="white", style="filled",URL="$hexagonal_prism_8hpp.html",tooltip=" "];
  Node15 -> Node16 [dir="back",color="midnightblue",fontsize="10",style="solid",fontname="Helvetica"];
  Node16 [label="src/hexagonalPrism.cpp",height=0.2,width=0.4,color="black", fillcolor="white", style="filled",URL="$hexagonal_prism_8cpp.html",tooltip=" "];
  Node15 -> Node9 [dir="back",color="midnightblue",fontsize="10",style="solid",fontname="Helvetica"];
  Node15 -> Node14 [dir="back",color="midnightblue",fontsize="10",style="solid",fontname="Helvetica"];
  Node7 -> Node14 [dir="back",color="midnightblue",fontsize="10",style="solid",fontname="Helvetica"];
  Node7 -> Node17 [dir="back",color="midnightblue",fontsize="10",style="solid",fontname="Helvetica"];
  Node17 [label="inc/hill.hpp",height=0.2,width=0.4,color="black", fillcolor="white", style="filled",URL="$hill_8hpp.html",tooltip=" "];
  Node17 -> Node18 [dir="back",color="midnightblue",fontsize="10",style="solid",fontname="Helvetica"];
  Node18 [label="src/hill.cpp",height=0.2,width=0.4,color="black", fillcolor="white", style="filled",URL="$hill_8cpp.html",tooltip=" "];
  Node17 -> Node6 [dir="back",color="midnightblue",fontsize="10",style="solid",fontname="Helvetica"];
  Node7 -> Node19 [dir="back",color="midnightblue",fontsize="10",style="solid",fontname="Helvetica"];
  Node19 [label="inc/plateau.hpp",height=0.2,width=0.4,color="black", fillcolor="white", style="filled",URL="$plateau_8hpp.html",tooltip=" "];
  Node19 -> Node6 [dir="back",color="midnightblue",fontsize="10",style="solid",fontname="Helvetica"];
  Node19 -> Node20 [dir="back",color="midnightblue",fontsize="10",style="solid",fontname="Helvetica"];
  Node20 [label="src/plateau.cpp",height=0.2,width=0.4,color="black", fillcolor="white", style="filled",URL="$plateau_8cpp.html",tooltip=" "];
  Node2 -> Node21 [dir="back",color="midnightblue",fontsize="10",style="solid",fontname="Helvetica"];
  Node21 [label="inc/drawingInterface.hpp",height=0.2,width=0.4,color="black", fillcolor="white", style="filled",URL="$drawing_interface_8hpp.html",tooltip=" "];
  Node21 -> Node10 [dir="back",color="midnightblue",fontsize="10",style="solid",fontname="Helvetica"];
  Node21 -> Node9 [dir="back",color="midnightblue",fontsize="10",style="solid",fontname="Helvetica"];
  Node21 -> Node15 [dir="back",color="midnightblue",fontsize="10",style="solid",fontname="Helvetica"];
  Node21 -> Node22 [dir="back",color="midnightblue",fontsize="10",style="solid",fontname="Helvetica"];
  Node22 [label="inc/flatSurface.hpp",height=0.2,width=0.4,color="black", fillcolor="white", style="filled",URL="$flat_surface_8hpp.html",tooltip=" "];
  Node22 -> Node23 [dir="back",color="midnightblue",fontsize="10",style="solid",fontname="Helvetica"];
  Node23 [label="src/flatSurface.cpp",height=0.2,width=0.4,color="black", fillcolor="white", style="filled",URL="$flat_surface_8cpp.html",tooltip=" "];
  Node22 -> Node6 [dir="back",color="midnightblue",fontsize="10",style="solid",fontname="Helvetica"];
  Node21 -> Node14 [dir="back",color="midnightblue",fontsize="10",style="solid",fontname="Helvetica"];
  Node21 -> Node17 [dir="back",color="midnightblue",fontsize="10",style="solid",fontname="Helvetica"];
  Node21 -> Node19 [dir="back",color="midnightblue",fontsize="10",style="solid",fontname="Helvetica"];
  Node21 -> Node24 [dir="back",color="midnightblue",fontsize="10",style="solid",fontname="Helvetica"];
  Node24 [label="inc/scene.hpp",height=0.2,width=0.4,color="black", fillcolor="white", style="filled",URL="$scene_8hpp.html",tooltip=" "];
  Node24 -> Node6 [dir="back",color="midnightblue",fontsize="10",style="solid",fontname="Helvetica"];
  Node24 -> Node25 [dir="back",color="midnightblue",fontsize="10",style="solid",fontname="Helvetica"];
  Node25 [label="src/scene.cpp",height=0.2,width=0.4,color="black", fillcolor="white", style="filled",URL="$scene_8cpp.html",tooltip=" "];
}
