digraph "flatSurface"
{
 // LATEX_PDF_SIZE
  edge [fontname="Helvetica",fontsize="10",labelfontname="Helvetica",labelfontsize="10"];
  node [fontname="Helvetica",fontsize="10",shape=record];
  Node1 [label="flatSurface",height=0.2,width=0.4,color="black", fillcolor="grey75", style="filled", fontcolor="black",tooltip="Klasa modelujaca pojecie powierzchni plaskiej o jednostkowej odleglosci pomiedzy jej punktami."];
  Node2 -> Node1 [dir="back",color="midnightblue",fontsize="10",style="solid",fontname="Helvetica"];
  Node2 [label="drawingInterface",height=0.2,width=0.4,color="black", fillcolor="white", style="filled",URL="$classdrawing_interface.html",tooltip="Klasa modelujaca interfejs rysowania w programie gnuplot za pomoca dostarczonego api."];
}
