digraph "plateau"
{
 // LATEX_PDF_SIZE
  edge [fontname="Helvetica",fontsize="10",labelfontname="Helvetica",labelfontsize="10"];
  node [fontname="Helvetica",fontsize="10",shape=record];
  Node1 [label="plateau",height=0.2,width=0.4,color="black", fillcolor="grey75", style="filled", fontcolor="black",tooltip="Klasa modelujaca pojecie plaskowyzu."];
  Node2 -> Node1 [dir="back",color="midnightblue",fontsize="10",style="solid",fontname="Helvetica"];
  Node2 [label="coordinateSystem",height=0.2,width=0.4,color="black", fillcolor="white", style="filled",URL="$classcoordinate_system.html",tooltip="Klasa modelujaca pojecie trojwymiarowego ukladu wspolrzednych."];
  Node2 -> Node2 [dir="back",color="darkorchid3",fontsize="10",style="dashed",label=" parent" ,fontname="Helvetica"];
  Node3 -> Node2 [dir="back",color="darkorchid3",fontsize="10",style="dashed",label=" orientation" ,fontname="Helvetica"];
  Node3 [label="rotationMatrixMD\< 3 \>",height=0.2,width=0.4,color="black", fillcolor="white", style="filled",URL="$classrotation_matrix_m_d.html",tooltip=" "];
  Node4 -> Node2 [dir="back",color="darkorchid3",fontsize="10",style="dashed",label=" centroid" ,fontname="Helvetica"];
  Node4 [label="vectorMD\< 3 \>",height=0.2,width=0.4,color="black", fillcolor="white", style="filled",URL="$classvector_m_d.html",tooltip=" "];
  Node5 -> Node1 [dir="back",color="midnightblue",fontsize="10",style="solid",fontname="Helvetica"];
  Node5 [label="drawingInterface",height=0.2,width=0.4,color="black", fillcolor="white", style="filled",URL="$classdrawing_interface.html",tooltip="Klasa modelujaca interfejs rysowania w programie gnuplot za pomoca dostarczonego api."];
  Node6 -> Node5 [dir="back",color="darkorchid3",fontsize="10",style="dashed",label=" color" ,fontname="Helvetica"];
  Node6 [label="string",height=0.2,width=0.4,color="grey75", fillcolor="white", style="filled",tooltip=" "];
  Node7 -> Node1 [dir="back",color="midnightblue",fontsize="10",style="solid",fontname="Helvetica"];
  Node7 [label="landmarkInterface",height=0.2,width=0.4,color="black", fillcolor="white", style="filled",URL="$classlandmark_interface.html",tooltip="Klasa modelujaca interfejs elementu krajobrazu."];
}
