digraph "coordinateSystem"
{
 // LATEX_PDF_SIZE
  edge [fontname="Helvetica",fontsize="10",labelfontname="Helvetica",labelfontsize="10"];
  node [fontname="Helvetica",fontsize="10",shape=record];
  Node1 [label="coordinateSystem",height=0.2,width=0.4,color="black", fillcolor="grey75", style="filled", fontcolor="black",tooltip="Klasa modelujaca pojecie trojwymiarowego ukladu wspolrzednych."];
  Node1 -> Node1 [dir="back",color="darkorchid3",fontsize="10",style="dashed",label=" parent" ,fontname="Helvetica"];
  Node2 -> Node1 [dir="back",color="darkorchid3",fontsize="10",style="dashed",label=" orientation" ,fontname="Helvetica"];
  Node2 [label="rotationMatrixMD\< 3 \>",height=0.2,width=0.4,color="black", fillcolor="white", style="filled",URL="$classrotation_matrix_m_d.html",tooltip=" "];
  Node3 -> Node1 [dir="back",color="darkorchid3",fontsize="10",style="dashed",label=" centroid" ,fontname="Helvetica"];
  Node3 [label="vectorMD\< 3 \>",height=0.2,width=0.4,color="black", fillcolor="white", style="filled",URL="$classvector_m_d.html",tooltip=" "];
}
