digraph "cuboid"
{
 // LATEX_PDF_SIZE
  edge [fontname="Helvetica",fontsize="10",labelfontname="Helvetica",labelfontsize="10"];
  node [fontname="Helvetica",fontsize="10",shape=record];
  Node1 [label="cuboid",height=0.2,width=0.4,color="black", fillcolor="grey75", style="filled", fontcolor="black",tooltip="Klasa modelujaca pojecie prostopadloscianu."];
  Node2 -> Node1 [dir="back",color="midnightblue",fontsize="10",style="solid",fontname="Helvetica"];
  Node2 [label="coordinateSystem",height=0.2,width=0.4,color="black", fillcolor="white", style="filled",URL="$classcoordinate_system.html",tooltip="Klasa modelujaca pojecie trojwymiarowego ukladu wspolrzednych."];
  Node3 -> Node1 [dir="back",color="midnightblue",fontsize="10",style="solid",fontname="Helvetica"];
  Node3 [label="drawingInterface",height=0.2,width=0.4,color="black", fillcolor="white", style="filled",URL="$classdrawing_interface.html",tooltip="Klasa modelujaca interfejs rysowania w programie gnuplot za pomoca dostarczonego api."];
  Node1 -> Node4 [dir="back",color="midnightblue",fontsize="10",style="solid",fontname="Helvetica"];
  Node4 [label="cuboidalPlateau",height=0.2,width=0.4,color="black", fillcolor="white", style="filled",URL="$classcuboidal_plateau.html",tooltip="Klasa modelujaca pojecie plaskowyzu prostopadlosciennego."];
}
