digraph "src/cuboidalPlateau.cpp"
{
 // LATEX_PDF_SIZE
  edge [fontname="Helvetica",fontsize="10",labelfontname="Helvetica",labelfontsize="10"];
  node [fontname="Helvetica",fontsize="10",shape=record];
  Node1 [label="src/cuboidalPlateau.cpp",height=0.2,width=0.4,color="black", fillcolor="grey75", style="filled", fontcolor="black",tooltip=" "];
  Node1 -> Node2 [color="midnightblue",fontsize="10",style="solid",fontname="Helvetica"];
  Node2 [label="cuboidalPlateau.hpp",height=0.2,width=0.4,color="black", fillcolor="white", style="filled",URL="$cuboidal_plateau_8hpp.html",tooltip=" "];
  Node2 -> Node3 [color="midnightblue",fontsize="10",style="solid",fontname="Helvetica"];
  Node3 [label="cuboid.hpp",height=0.2,width=0.4,color="black", fillcolor="white", style="filled",URL="$cuboid_8hpp.html",tooltip=" "];
  Node3 -> Node4 [color="midnightblue",fontsize="10",style="solid",fontname="Helvetica"];
  Node4 [label="coordinateSystem.hpp",height=0.2,width=0.4,color="black", fillcolor="white", style="filled",URL="$coordinate_system_8hpp.html",tooltip=" "];
  Node4 -> Node5 [color="midnightblue",fontsize="10",style="solid",fontname="Helvetica"];
  Node5 [label="Dr3D_gnuplot_api.hpp",height=0.2,width=0.4,color="black", fillcolor="white", style="filled",URL="$_dr3_d__gnuplot__api_8hpp.html",tooltip=" "];
  Node5 -> Node6 [color="midnightblue",fontsize="10",style="solid",fontname="Helvetica"];
  Node6 [label="Draw3D_api_interface.hpp",height=0.2,width=0.4,color="black", fillcolor="white", style="filled",URL="$_draw3_d__api__interface_8hpp.html",tooltip=" "];
  Node6 -> Node7 [color="midnightblue",fontsize="10",style="solid",fontname="Helvetica"];
  Node7 [label="vector",height=0.2,width=0.4,color="grey75", fillcolor="white", style="filled",tooltip=" "];
  Node6 -> Node8 [color="midnightblue",fontsize="10",style="solid",fontname="Helvetica"];
  Node8 [label="string",height=0.2,width=0.4,color="grey75", fillcolor="white", style="filled",tooltip=" "];
  Node6 -> Node9 [color="midnightblue",fontsize="10",style="solid",fontname="Helvetica"];
  Node9 [label="iostream",height=0.2,width=0.4,color="grey75", fillcolor="white", style="filled",tooltip=" "];
  Node5 -> Node10 [color="midnightblue",fontsize="10",style="solid",fontname="Helvetica"];
  Node10 [label="list",height=0.2,width=0.4,color="grey75", fillcolor="white", style="filled",tooltip=" "];
  Node5 -> Node11 [color="midnightblue",fontsize="10",style="solid",fontname="Helvetica"];
  Node11 [label="map",height=0.2,width=0.4,color="grey75", fillcolor="white", style="filled",tooltip=" "];
  Node5 -> Node12 [color="midnightblue",fontsize="10",style="solid",fontname="Helvetica"];
  Node12 [label="utility",height=0.2,width=0.4,color="grey75", fillcolor="white", style="filled",tooltip=" "];
  Node5 -> Node13 [color="midnightblue",fontsize="10",style="solid",fontname="Helvetica"];
  Node13 [label="memory",height=0.2,width=0.4,color="grey75", fillcolor="white", style="filled",tooltip=" "];
  Node5 -> Node14 [color="midnightblue",fontsize="10",style="solid",fontname="Helvetica"];
  Node14 [label="mutex",height=0.2,width=0.4,color="grey75", fillcolor="white", style="filled",tooltip=" "];
  Node5 -> Node15 [color="midnightblue",fontsize="10",style="solid",fontname="Helvetica"];
  Node15 [label="thread",height=0.2,width=0.4,color="grey75", fillcolor="white", style="filled",tooltip=" "];
  Node4 -> Node16 [color="midnightblue",fontsize="10",style="solid",fontname="Helvetica"];
  Node16 [label="rotationMatrixMD.hpp",height=0.2,width=0.4,color="black", fillcolor="white", style="filled",URL="$rotation_matrix_m_d_8hpp.html",tooltip=" "];
  Node16 -> Node9 [color="midnightblue",fontsize="10",style="solid",fontname="Helvetica"];
  Node16 -> Node17 [color="midnightblue",fontsize="10",style="solid",fontname="Helvetica"];
  Node17 [label="cmath",height=0.2,width=0.4,color="grey75", fillcolor="white", style="filled",tooltip=" "];
  Node16 -> Node18 [color="midnightblue",fontsize="10",style="solid",fontname="Helvetica"];
  Node18 [label="array",height=0.2,width=0.4,color="grey75", fillcolor="white", style="filled",tooltip=" "];
  Node16 -> Node19 [color="midnightblue",fontsize="10",style="solid",fontname="Helvetica"];
  Node19 [label="vectorMD.hpp",height=0.2,width=0.4,color="black", fillcolor="white", style="filled",URL="$vector_m_d_8hpp.html",tooltip=" "];
  Node19 -> Node18 [color="midnightblue",fontsize="10",style="solid",fontname="Helvetica"];
  Node19 -> Node17 [color="midnightblue",fontsize="10",style="solid",fontname="Helvetica"];
  Node3 -> Node20 [color="midnightblue",fontsize="10",style="solid",fontname="Helvetica"];
  Node20 [label="drawingInterface.hpp",height=0.2,width=0.4,color="black", fillcolor="white", style="filled",URL="$drawing_interface_8hpp.html",tooltip=" "];
  Node20 -> Node21 [color="midnightblue",fontsize="10",style="solid",fontname="Helvetica"];
  Node21 [label="chrono",height=0.2,width=0.4,color="grey75", fillcolor="white", style="filled",tooltip=" "];
  Node20 -> Node15 [color="midnightblue",fontsize="10",style="solid",fontname="Helvetica"];
  Node20 -> Node5 [color="midnightblue",fontsize="10",style="solid",fontname="Helvetica"];
  Node2 -> Node22 [color="midnightblue",fontsize="10",style="solid",fontname="Helvetica"];
  Node22 [label="landmarkInterface.hpp",height=0.2,width=0.4,color="black", fillcolor="white", style="filled",URL="$landmark_interface_8hpp.html",tooltip=" "];
  Node22 -> Node23 [color="midnightblue",fontsize="10",style="solid",fontname="Helvetica"];
  Node23 [label="droneInterface.hpp",height=0.2,width=0.4,color="black", fillcolor="white", style="filled",URL="$drone_interface_8hpp.html",tooltip=" "];
  Node1 -> Node24 [color="midnightblue",fontsize="10",style="solid",fontname="Helvetica"];
  Node24 [label="random",height=0.2,width=0.4,color="grey75", fillcolor="white", style="filled",tooltip=" "];
}
