digraph "Graficzna hierarchia klas"
{
 // LATEX_PDF_SIZE
  edge [fontname="Helvetica",fontsize="10",labelfontname="Helvetica",labelfontsize="10"];
  node [fontname="Helvetica",fontsize="10",shape=record];
  rankdir="LR";
  Node0 [label="menu",height=0.2,width=0.4,color="black", fillcolor="white", style="filled",URL="$classmenu.html",tooltip="Klasa modelujaca menu \"okienkowe\" programu."];
}
