digraph "inc/landmarkInterface.hpp"
{
 // LATEX_PDF_SIZE
  edge [fontname="Helvetica",fontsize="10",labelfontname="Helvetica",labelfontsize="10"];
  node [fontname="Helvetica",fontsize="10",shape=record];
  Node1 [label="inc/landmarkInterface.hpp",height=0.2,width=0.4,color="black", fillcolor="grey75", style="filled", fontcolor="black",tooltip=" "];
  Node1 -> Node2 [dir="back",color="midnightblue",fontsize="10",style="solid",fontname="Helvetica"];
  Node2 [label="inc/basicDrone.hpp",height=0.2,width=0.4,color="black", fillcolor="white", style="filled",URL="$basic_drone_8hpp.html",tooltip=" "];
  Node2 -> Node3 [dir="back",color="midnightblue",fontsize="10",style="solid",fontname="Helvetica"];
  Node3 [label="src/basicDrone.cpp",height=0.2,width=0.4,color="black", fillcolor="white", style="filled",URL="$basic_drone_8cpp.html",tooltip=" "];
  Node2 -> Node4 [dir="back",color="midnightblue",fontsize="10",style="solid",fontname="Helvetica"];
  Node4 [label="src/main.cpp",height=0.2,width=0.4,color="black", fillcolor="white", style="filled",URL="$main_8cpp.html",tooltip=" "];
  Node1 -> Node5 [dir="back",color="midnightblue",fontsize="10",style="solid",fontname="Helvetica"];
  Node5 [label="inc/cuboidalPlateau.hpp",height=0.2,width=0.4,color="black", fillcolor="white", style="filled",URL="$cuboidal_plateau_8hpp.html",tooltip=" "];
  Node5 -> Node6 [dir="back",color="midnightblue",fontsize="10",style="solid",fontname="Helvetica"];
  Node6 [label="src/cuboidalPlateau.cpp",height=0.2,width=0.4,color="black", fillcolor="white", style="filled",URL="$cuboidal_plateau_8cpp.html",tooltip=" "];
  Node5 -> Node4 [dir="back",color="midnightblue",fontsize="10",style="solid",fontname="Helvetica"];
  Node1 -> Node7 [dir="back",color="midnightblue",fontsize="10",style="solid",fontname="Helvetica"];
  Node7 [label="inc/hexagonalDrone.hpp",height=0.2,width=0.4,color="black", fillcolor="white", style="filled",URL="$hexagonal_drone_8hpp.html",tooltip=" "];
  Node7 -> Node8 [dir="back",color="midnightblue",fontsize="10",style="solid",fontname="Helvetica"];
  Node8 [label="src/hexagonalDrone.cpp",height=0.2,width=0.4,color="black", fillcolor="white", style="filled",URL="$hexagonal_drone_8cpp.html",tooltip=" "];
  Node7 -> Node4 [dir="back",color="midnightblue",fontsize="10",style="solid",fontname="Helvetica"];
  Node1 -> Node9 [dir="back",color="midnightblue",fontsize="10",style="solid",fontname="Helvetica"];
  Node9 [label="inc/hill.hpp",height=0.2,width=0.4,color="black", fillcolor="white", style="filled",URL="$hill_8hpp.html",tooltip=" "];
  Node9 -> Node10 [dir="back",color="midnightblue",fontsize="10",style="solid",fontname="Helvetica"];
  Node10 [label="src/hill.cpp",height=0.2,width=0.4,color="black", fillcolor="white", style="filled",URL="$hill_8cpp.html",tooltip=" "];
  Node9 -> Node4 [dir="back",color="midnightblue",fontsize="10",style="solid",fontname="Helvetica"];
  Node1 -> Node11 [dir="back",color="midnightblue",fontsize="10",style="solid",fontname="Helvetica"];
  Node11 [label="inc/plateau.hpp",height=0.2,width=0.4,color="black", fillcolor="white", style="filled",URL="$plateau_8hpp.html",tooltip=" "];
  Node11 -> Node4 [dir="back",color="midnightblue",fontsize="10",style="solid",fontname="Helvetica"];
  Node11 -> Node12 [dir="back",color="midnightblue",fontsize="10",style="solid",fontname="Helvetica"];
  Node12 [label="src/plateau.cpp",height=0.2,width=0.4,color="black", fillcolor="white", style="filled",URL="$plateau_8cpp.html",tooltip=" "];
  Node1 -> Node13 [dir="back",color="midnightblue",fontsize="10",style="solid",fontname="Helvetica"];
  Node13 [label="inc/scene.hpp",height=0.2,width=0.4,color="black", fillcolor="white", style="filled",URL="$scene_8hpp.html",tooltip=" "];
  Node13 -> Node4 [dir="back",color="midnightblue",fontsize="10",style="solid",fontname="Helvetica"];
  Node13 -> Node14 [dir="back",color="midnightblue",fontsize="10",style="solid",fontname="Helvetica"];
  Node14 [label="src/scene.cpp",height=0.2,width=0.4,color="black", fillcolor="white", style="filled",URL="$scene_8cpp.html",tooltip=" "];
}
