digraph "inc/vectorMD.hpp"
{
 // LATEX_PDF_SIZE
  edge [fontname="Helvetica",fontsize="10",labelfontname="Helvetica",labelfontsize="10"];
  node [fontname="Helvetica",fontsize="10",shape=record];
  Node1 [label="inc/vectorMD.hpp",height=0.2,width=0.4,color="black", fillcolor="grey75", style="filled", fontcolor="black",tooltip=" "];
  Node1 -> Node2 [dir="back",color="midnightblue",fontsize="10",style="solid",fontname="Helvetica"];
  Node2 [label="inc/rotationMatrixMD.hpp",height=0.2,width=0.4,color="black", fillcolor="white", style="filled",URL="$rotation_matrix_m_d_8hpp.html",tooltip=" "];
  Node2 -> Node3 [dir="back",color="midnightblue",fontsize="10",style="solid",fontname="Helvetica"];
  Node3 [label="src/plateau.cpp",height=0.2,width=0.4,color="black", fillcolor="white", style="filled",URL="$plateau_8cpp.html",tooltip=" "];
  Node2 -> Node4 [dir="back",color="midnightblue",fontsize="10",style="solid",fontname="Helvetica"];
  Node4 [label="inc/coordinateSystem.hpp",height=0.2,width=0.4,color="black", fillcolor="white", style="filled",URL="$coordinate_system_8hpp.html",tooltip=" "];
  Node4 -> Node5 [dir="back",color="midnightblue",fontsize="10",style="solid",fontname="Helvetica"];
  Node5 [label="src/coordinateSystem.cpp",height=0.2,width=0.4,color="black", fillcolor="white", style="filled",URL="$coordinate_system_8cpp.html",tooltip=" "];
  Node4 -> Node6 [dir="back",color="midnightblue",fontsize="10",style="solid",fontname="Helvetica"];
  Node6 [label="inc/basicDrone.hpp",height=0.2,width=0.4,color="black", fillcolor="white", style="filled",URL="$basic_drone_8hpp.html",tooltip=" "];
  Node6 -> Node7 [dir="back",color="midnightblue",fontsize="10",style="solid",fontname="Helvetica"];
  Node7 [label="src/basicDrone.cpp",height=0.2,width=0.4,color="black", fillcolor="white", style="filled",URL="$basic_drone_8cpp.html",tooltip=" "];
  Node6 -> Node8 [dir="back",color="midnightblue",fontsize="10",style="solid",fontname="Helvetica"];
  Node8 [label="src/main.cpp",height=0.2,width=0.4,color="black", fillcolor="white", style="filled",URL="$main_8cpp.html",tooltip=" "];
  Node4 -> Node9 [dir="back",color="midnightblue",fontsize="10",style="solid",fontname="Helvetica"];
  Node9 [label="inc/cuboid.hpp",height=0.2,width=0.4,color="black", fillcolor="white", style="filled",URL="$cuboid_8hpp.html",tooltip=" "];
  Node9 -> Node10 [dir="back",color="midnightblue",fontsize="10",style="solid",fontname="Helvetica"];
  Node10 [label="src/cuboid.cpp",height=0.2,width=0.4,color="black", fillcolor="white", style="filled",URL="$cuboid_8cpp.html",tooltip=" "];
  Node9 -> Node6 [dir="back",color="midnightblue",fontsize="10",style="solid",fontname="Helvetica"];
  Node9 -> Node11 [dir="back",color="midnightblue",fontsize="10",style="solid",fontname="Helvetica"];
  Node11 [label="inc/cuboidalPlateau.hpp",height=0.2,width=0.4,color="black", fillcolor="white", style="filled",URL="$cuboidal_plateau_8hpp.html",tooltip=" "];
  Node11 -> Node12 [dir="back",color="midnightblue",fontsize="10",style="solid",fontname="Helvetica"];
  Node12 [label="src/cuboidalPlateau.cpp",height=0.2,width=0.4,color="black", fillcolor="white", style="filled",URL="$cuboidal_plateau_8cpp.html",tooltip=" "];
  Node11 -> Node8 [dir="back",color="midnightblue",fontsize="10",style="solid",fontname="Helvetica"];
  Node9 -> Node13 [dir="back",color="midnightblue",fontsize="10",style="solid",fontname="Helvetica"];
  Node13 [label="inc/hexagonalDrone.hpp",height=0.2,width=0.4,color="black", fillcolor="white", style="filled",URL="$hexagonal_drone_8hpp.html",tooltip=" "];
  Node13 -> Node14 [dir="back",color="midnightblue",fontsize="10",style="solid",fontname="Helvetica"];
  Node14 [label="src/hexagonalDrone.cpp",height=0.2,width=0.4,color="black", fillcolor="white", style="filled",URL="$hexagonal_drone_8cpp.html",tooltip=" "];
  Node13 -> Node8 [dir="back",color="midnightblue",fontsize="10",style="solid",fontname="Helvetica"];
  Node4 -> Node15 [dir="back",color="midnightblue",fontsize="10",style="solid",fontname="Helvetica"];
  Node15 [label="inc/hexagonalPrism.hpp",height=0.2,width=0.4,color="black", fillcolor="white", style="filled",URL="$hexagonal_prism_8hpp.html",tooltip=" "];
  Node15 -> Node16 [dir="back",color="midnightblue",fontsize="10",style="solid",fontname="Helvetica"];
  Node16 [label="src/hexagonalPrism.cpp",height=0.2,width=0.4,color="black", fillcolor="white", style="filled",URL="$hexagonal_prism_8cpp.html",tooltip=" "];
  Node15 -> Node6 [dir="back",color="midnightblue",fontsize="10",style="solid",fontname="Helvetica"];
  Node15 -> Node13 [dir="back",color="midnightblue",fontsize="10",style="solid",fontname="Helvetica"];
  Node4 -> Node13 [dir="back",color="midnightblue",fontsize="10",style="solid",fontname="Helvetica"];
  Node4 -> Node17 [dir="back",color="midnightblue",fontsize="10",style="solid",fontname="Helvetica"];
  Node17 [label="inc/hill.hpp",height=0.2,width=0.4,color="black", fillcolor="white", style="filled",URL="$hill_8hpp.html",tooltip=" "];
  Node17 -> Node18 [dir="back",color="midnightblue",fontsize="10",style="solid",fontname="Helvetica"];
  Node18 [label="src/hill.cpp",height=0.2,width=0.4,color="black", fillcolor="white", style="filled",URL="$hill_8cpp.html",tooltip=" "];
  Node17 -> Node8 [dir="back",color="midnightblue",fontsize="10",style="solid",fontname="Helvetica"];
  Node4 -> Node19 [dir="back",color="midnightblue",fontsize="10",style="solid",fontname="Helvetica"];
  Node19 [label="inc/plateau.hpp",height=0.2,width=0.4,color="black", fillcolor="white", style="filled",URL="$plateau_8hpp.html",tooltip=" "];
  Node19 -> Node8 [dir="back",color="midnightblue",fontsize="10",style="solid",fontname="Helvetica"];
  Node19 -> Node3 [dir="back",color="midnightblue",fontsize="10",style="solid",fontname="Helvetica"];
}
